{
  "project_info": {
    "project_number": "474830267143",
    "firebase_url": "https://mindcoach-1d232.firebaseio.com",
    "project_id": "mindcoach-1d232",
    "storage_bucket": "mindcoach-1d232.appspot.com"
  },
  "client": [
    {
      "client_info": {
        "mobilesdk_app_id": "1:474830267143:android:25b36ce3a2ce8dea",
        "android_client_info": {
          "package_name": "com.example.rafiquee.mindcoach"
        }
      },
      "oauth_client": [
        {
          "client_id": "474830267143-gp8tctujltsqk4b76ldh8m82ip8061q9.apps.googleusercontent.com",
          "client_type": 1,
          "android_info": {
            "package_name": "com.example.rafiquee.mindcoach",
            "certificate_hash": "4f080a365eb3dbcfdf5dcf0fe0089f273ccfaa87"
          }
        },
        {
          "client_id": "474830267143-do0d2pdo3bnlagol84hd9vic5v4tuctn.apps.googleusercontent.com",
          "client_type": 3
        }
      ],
      "api_key": [
        {
          "current_key": "AIzaSyAEOE8cZ5IJj5EZzGW6sKXFsxCjYbIweoQ"
        }
      ],
      "services": {
        "appinvite_service": {
          "other_platform_oauth_client": [
            {
              "client_id": "474830267143-do0d2pdo3bnlagol84hd9vic5v4tuctn.apps.googleusercontent.com",
              "client_type": 3
            }
          ]
        }
      }
    },
    {
      "client_info": {
        "mobilesdk_app_id": "1:474830267143:android:2f713d37739827ba",
        "android_client_info": {
          "package_name": "com.example.rafiquee.mindcoach_adminandtherapist"
        }
      },
      "oauth_client": [
        {
          "client_id": "474830267143-teim7g5cmbpbn65bspsuh4ecqecngrnb.apps.googleusercontent.com",
          "client_type": 1,
          "android_info": {
            "package_name": "com.example.rafiquee.mindcoach_adminandtherapist",
            "certificate_hash": "4f080a365eb3dbcfdf5dcf0fe0089f273ccfaa87"
          }
        },
        {
          "client_id": "474830267143-do0d2pdo3bnlagol84hd9vic5v4tuctn.apps.googleusercontent.com",
          "client_type": 3
        }
      ],
      "api_key": [
        {
          "current_key": "AIzaSyAEOE8cZ5IJj5EZzGW6sKXFsxCjYbIweoQ"
        }
      ],
      "services": {
        "appinvite_service": {
          "other_platform_oauth_client": [
            {
              "client_id": "474830267143-do0d2pdo3bnlagol84hd9vic5v4tuctn.apps.googleusercontent.com",
              "client_type": 3
            }
          ]
        }
      }
    }
  ],
  "configuration_version": "1"
}